{
    "presets": "./Presets",
    "extensions": ["png", "jpg", "jpeg"],
    "types": {
        "normal": { "location": "./Textures/Normal" },
        "mask": { "location": "./Textures/Mask" },
        "roughness": { "location": "./Textures/Roughness" },
        "particle-stencil": { "location": "./Textures/Particle stencil" },
        "specular": { "location": "./Textures/Specular" },
        "metal": { "location": "./Textures/Metal" },
        "pulse": { "location": "./Textures/Pulse stencil" },
        "colour": { "location": "./Textures/Colour" }
    },
    "aliases": {
        "color": "colour"
    }
}
